Componentes/FlipFlopJK/simulation/qsim/FlipFlopJK.msim.vcd
$comment
	File created using the following command:
		vcd file FlipFlopJK.msim.vcd -direction
$end
$date
	Fri Oct 26 18:30:34 2018
$end
$version
	ModelSim Version 10.5b
$end
$timescale
	1ps
$end

$scope module flipflopjk_vhd_vec_tst $end
$var wire 1 ! Clock $end
$var wire 1 " J $end
$var wire 1 # K $end
$var wire 1 $ Output $end

$scope module i1 $end
$var wire 1 % gnd $end
$var wire 1 & vcc $end
$var wire 1 ' unknown $end
$var wire 1 ( devoe $end
$var wire 1 ) devclrn $end
$var wire 1 * devpor $end
$var wire 1 + ww_devoe $end
$var wire 1 , ww_devclrn $end
$var wire 1 - ww_devpor $end
$var wire 1 . ww_J $end
$var wire 1 / ww_K $end
$var wire 1 0 ww_Clock $end
$var wire 1 1 ww_Output $end
$var wire 1 2 \Output~output_o\ $end
$var wire 1 3 \Clock~input_o\ $end
$var wire 1 4 \K~input_o\ $end
$var wire 1 5 \J~input_o\ $end
$var wire 1 6 \temp~0_combout\ $end
$var wire 1 7 \temp~q\ $end
$var wire 1 8 \ALT_INV_temp~q\ $end
$var wire 1 9 \ALT_INV_K~input_o\ $end
$var wire 1 : \ALT_INV_J~input_o\ $end
$upscope $end
$upscope $end
$enddefinitions $end
#0
$dumpvars
1!
0"
0#
0$
0%
1&
x'
1(
1)
1*
1+
1,
1-
0.
0/
10
01
02
13
04
05
06
07
18
19
1:
$end
#10000
1"
1.
15
0:
16
#20000
0"
0.
05
1:
06
#30000
1"
1#
1.
1/
14
15
0:
09
16
#40000
0"
0.
05
1:
06
#50000
1"
0!
1.
00
03
15
0:
16
#60000
0"
0#
0.
0/
04
05
1:
19
06
#70000
1"
1.
15
0:
16
#80000
0"
0.
05
1:
06
#90000
1"
1#
1.
1/
14
15
0:
09
16
#100000
0"
1!
0.
10
13
05
1:
17
06
08
12
11
1$
#110000
1"
1.
15
0:
#120000
0"
0#
0.
0/
04
05
1:
19
16
#130000
1"
1.
15
0:
#140000
0"
0.
05
1:
#150000
1"
1#
0!
1.
1/
00
03
14
15
0:
09
06
#160000
0"
0.
05
1:
#170000
1"
1.
15
0:
#180000
0"
0#
0.
0/
04
05
1:
19
16
#190000
1"
1.
15
0:
#200000
0"
1!
0.
10
13
05
1:
#210000
1"
1#
1.
1/
14
15
0:
09
06
#220000
0"
0.
05
1:
#230000
1"
1.
15
0:
#240000
0"
0#
0.
0/
04
05
1:
19
16
#250000
1"
0!
1.
00
03
15
0:
#260000
0"
0.
05
1:
#270000
1"
1#
1.
1/
14
15
0:
09
06
#280000
0"
0.
05
1:
#290000
1"
1.
15
0:
#300000
0"
0#
1!
0.
0/
10
13
04
05
1:
19
07
16
18
06
02
01
0$
#310000
1"
1.
15
0:
16
#320000
0"
0.
05
1:
06
#330000
1"
1#
1.
1/
14
15
0:
09
16
#340000
0"
0.
05
1:
06
#350000
1"
0!
1.
00
03
15
0:
16
#360000
0"
0#
0.
0/
04
05
1:
19
06
#370000
1"
1.
15
0:
16
#380000
0"
0.
05
1:
06
#390000
1"
1#
1.
1/
14
15
0:
09
16
#400000
0"
1!
0.
10
13
05
1:
17
06
08
12
11
1$
#410000
1"
1.
15
0:
#420000
0"
0#
0.
0/
04
05
1:
19
16
#430000
1"
1.
15
0:
#440000
0"
0.
05
1:
#450000
1"
1#
0!
1.
1/
00
03
14
15
0:
09
06
#460000
0"
0.
05
1:
#470000
1"
1.
15
0:
#480000
0"
0#
0.
0/
04
05
1:
19
16
#490000
1"
1.
15
0:
#500000
0"
1!
0.
10
13
05
1:
#510000
1"
1#
1.
1/
14
15
0:
09
06
#520000
0"
0.
05
1:
#530000
1"
1.
15
0:
#540000
0"
0#
0.
0/
04
05
1:
19
16
#550000
1"
0!
1.
00
03
15
0:
#560000
0"
0.
05
1:
#570000
1"
1#
1.
1/
14
15
0:
09
06
#580000
0"
0.
05
1:
#590000
1"
1.
15
0:
#600000
0"
0#
1!
0.
0/
10
13
04
05
1:
19
07
16
18
06
02
01
0$
#610000
1"
1.
15
0:
16
#620000
0"
0.
05
1:
06
#630000
1"
1#
1.
1/
14
15
0:
09
16
#640000
0"
0.
05
1:
06
#650000
1"
0!
1.
00
03
15
0:
16
#660000
0"
0#
0.
0/
04
05
1:
19
06
#670000
1"
1.
15
0:
16
#680000
0"
0.
05
1:
06
#690000
1"
1#
1.
1/
14
15
0:
09
16
#700000
0"
1!
0.
10
13
05
1:
17
06
08
12
11
1$
#710000
1"
1.
15
0:
#720000
0"
0#
0.
0/
04
05
1:
19
16
#730000
1"
1.
15
0:
#740000
0"
0.
05
1:
#750000
1"
1#
0!
1.
1/
00
03
14
15
0:
09
06
#760000
0"
0.
05
1:
#770000
1"
1.
15
0:
#780000
0"
0#
0.
0/
04
05
1:
19
16
#790000
1"
1.
15
0:
#800000
0"
1!
0.
10
13
05
1:
#810000
1"
1#
1.
1/
14
15
0:
09
06
#820000
0"
0.
05
1:
#830000
1"
1.
15
0:
#840000
0"
0#
0.
0/
04
05
1:
19
16
#850000
1"
0!
1.
00
03
15
0:
#860000
0"
0.
05
1:
#870000
1"
1#
1.
1/
14
15
0:
09
06
#880000
0"
0.
05
1:
#890000
1"
1.
15
0:
#900000
0"
0#
1!
0.
0/
10
13
04
05
1:
19
07
16
18
06
02
01
0$
#910000
1"
1.
15
0:
16
#920000
0"
0.
05
1:
06
#930000
1"
1#
1.
1/
14
15
0:
09
16
#940000
0"
0.
05
1:
06
#950000
1"
0!
1.
00
03
15
0:
16
#960000
0"
0#
0.
0/
04
05
1:
19
06
#970000
1"
1.
15
0:
16
#980000
0"
0.
05
1:
06
#990000
1"
1#
1.
1/
14
15
0:
09
16
